-------------------------------------------------------------------------------
Test set: org.apache.pdfbox.pdmodel.graphics.image.CCITTFactoryTest
-------------------------------------------------------------------------------
Tests run: 1, Failures: 0, Errors: 0, Skipped: 0, Time elapsed: 0.383 sec - in org.apache.pdfbox.pdmodel.graphics.image.CCITTFactoryTest
