-------------------------------------------------------------------------------
Test set: org.apache.pdfbox.pdmodel.common.function.type4.TestParser
-------------------------------------------------------------------------------
Tests run: 4, Failures: 0, Errors: 0, Skipped: 0, Time elapsed: 0.002 sec - in org.apache.pdfbox.pdmodel.common.function.type4.TestParser
