-------------------------------------------------------------------------------
Test set: org.apache.pdfbox.cos.TestCOSInteger
-------------------------------------------------------------------------------
Tests run: 12, Failures: 0, Errors: 0, Skipped: 0, Time elapsed: 0.009 sec - in org.apache.pdfbox.cos.TestCOSInteger
