-------------------------------------------------------------------------------
Test set: org.apache.pdfbox.pdmodel.graphics.optional_content.TestOptionalContentGroups
-------------------------------------------------------------------------------
Tests run: 2, Failures: 0, Errors: 0, Skipped: 0, Time elapsed: 0.026 sec - in org.apache.pdfbox.pdmodel.graphics.optional_content.TestOptionalContentGroups
