-------------------------------------------------------------------------------
Test set: org.apache.pdfbox.pdmodel.interactive.form.TestFields
-------------------------------------------------------------------------------
Tests run: 1, Failures: 0, Errors: 0, Skipped: 0, Time elapsed: 0.009 sec - in org.apache.pdfbox.pdmodel.interactive.form.TestFields
