-------------------------------------------------------------------------------
Test set: org.apache.pdfbox.preflight.utils.TestCOSUtils
-------------------------------------------------------------------------------
Tests run: 9, Failures: 0, Errors: 0, Skipped: 0, Time elapsed: 0.002 sec - in org.apache.pdfbox.preflight.utils.TestCOSUtils
