-------------------------------------------------------------------------------
Test set: org.apache.pdfbox.preflight.integration.TestValidFiles
-------------------------------------------------------------------------------
Tests run: 1, Failures: 0, Errors: 0, Skipped: 0, Time elapsed: 0.008 sec - in org.apache.pdfbox.preflight.integration.TestValidFiles
