C:\Users\NetBeansW\trunk\tools\src\test\java\org\apache\pdfbox\tools\TestTextToPdf.java
C:\Users\NetBeansW\trunk\tools\src\test\java\org\apache\pdfbox\tools\TestExtractText.java
C:\Users\NetBeansW\trunk\tools\src\test\java\org\apache\pdfbox\tools\TestPDFText2HTML.java
