-------------------------------------------------------------------------------
Test set: org.apache.xmpbox.schema.TestExifXmp
-------------------------------------------------------------------------------
Tests run: 2, Failures: 0, Errors: 0, Skipped: 0, Time elapsed: 0.011 sec - in org.apache.xmpbox.schema.TestExifXmp
