-------------------------------------------------------------------------------
Test set: org.apache.xmpbox.schema.XMPBasicTest
-------------------------------------------------------------------------------
Tests run: 22, Failures: 0, Errors: 0, Skipped: 0, Time elapsed: 0.132 sec - in org.apache.xmpbox.schema.XMPBasicTest
