-------------------------------------------------------------------------------
Test set: org.apache.xmpbox.parser.DeserializationTest
-------------------------------------------------------------------------------
Tests run: 17, Failures: 0, Errors: 0, Skipped: 0, Time elapsed: 0.491 sec - in org.apache.xmpbox.parser.DeserializationTest
